{
    "Errorcode": 0,
    "Infos": {
        "activeUser": "6958a2ab-9105-dc25-0077-f3515ce1fc07",
        "Resources": "{\"1\":\"17\",\"2\":\"347388\",\"3\":\"55\",\"4\":\"0\",\"5\":\"0\",\"6\":\"0\",\"7\":\"0\",\"9\":\"0\",\"10\":\"0\",\"11\":\"1\",\"61\":\"89\",\"62\":\"0\",\"63\":\"0\",\"64\":\"0\",\"65\":\"0\",\"66\":\"0\",\"67\":\"0\",\"68\":\"14\",\"69\":\"0\",\"70\":\"75\",\"71\":\"384\",\"73\":\"0\",\"74\":\"158\",\"76\":\"3\",\"77\":\"1\",\"78\":\"3\",\"83\":\"0\",\"0\":\"75525990\"}",
        "specialClientVersion": "12959558076f4878857f1ee17619680b",
        "Position": -1,
        "debug": 0,
        "LeadingCapital": "51948fe2-6ffb-4062-ae44-fb270056a733,19",
        "JackpotInfo": "c7b7d75c-867c-805e-6b25-6e7a762f8a40:-611694:7799",
        "PremiumSurveysInfo": "0",
        "Server-Time": 0.06719303131103516
    },
    "Body": {
        "Level": 49,
        "StoragesInfo": {
            "WaitTime": {
                "base": 180,
                "utilisation": 63,
                "passengerSalePromotion": 31,
                "personality": 31,
                "timedBonus": 22,
                "noob": 22,
                "final": 22
            },
            "InstantLoadingTokens": 0,
            "Incoming": [
                49,
                35,
                7,
                37,
                42,
                11,
                13,
                27,
                23,
                26,
                9,
                20,
                48
            ],
            "Outgoing": [
                49
            ],
            "Storages": [
                {
                    "ResourceId": 35,
                    "Amount": 0,
                    "LastAmount": 0,
                    "Limit": 179000,
                    "Price": 1054,
                    "NoobPrice": 0,
                    "Trend": 0,
                    "ConsumptionAmount": 0.2759926040761105,
                    "DeliveredByPlayer": false,
                    "FetchedByPlayer": false,
                    "PositionOfPlayer": 0
                },
                {
                    "ResourceId": 37,
                    "Amount": 0,
                    "LastAmount": 0,
                    "Limit": 179000,
                    "Price": 1334,
                    "NoobPrice": 0,
                    "Trend": 0,
                    "ConsumptionAmount": 0.2759926021203006,
                    "DeliveredByPlayer": false,
                    "FetchedByPlayer": false,
                    "PositionOfPlayer": 0
                },
                {
                    "ResourceId": 7,
                    "Amount": 0,
                    "LastAmount": 0,
                    "Limit": 179000,
                    "Price": 480,
                    "NoobPrice": 0,
                    "Trend": 0,
                    "ConsumptionAmount": 0.27599265732033745,
                    "DeliveredByPlayer": false,
                    "FetchedByPlayer": false,
                    "PositionOfPlayer": 0
                },
                {
                    "ResourceId": 9,
                    "Amount": 0,
                    "LastAmount": 0,
                    "Limit": 179000,
                    "Price": 550,
                    "NoobPrice": 0,
                    "Trend": 0,
                    "ConsumptionAmount": 0.27599265508070203,
                    "DeliveredByPlayer": false,
                    "FetchedByPlayer": false,
                    "PositionOfPlayer": 0
                },
                {
                    "ResourceId": 11,
                    "Amount": 0,
                    "LastAmount": 0,
                    "Limit": 179000,
                    "Price": 621,
                    "NoobPrice": 0,
                    "Trend": 0,
                    "ConsumptionAmount": 0.27599265310424953,
                    "DeliveredByPlayer": false,
                    "FetchedByPlayer": false,
                    "PositionOfPlayer": 0
                },
                {
                    "ResourceId": 42,
                    "Amount": 0,
                    "LastAmount": 0,
                    "Limit": 179000,
                    "Price": 1937,
                    "NoobPrice": 0,
                    "Trend": 0,
                    "ConsumptionAmount": 0.27599258936883325,
                    "DeliveredByPlayer": false,
                    "FetchedByPlayer": false,
                    "PositionOfPlayer": 0
                },
                {
                    "ResourceId": 13,
                    "Amount": 169512,
                    "LastAmount": 0,
                    "Limit": 179000,
                    "Price": 93,
                    "NoobPrice": 0,
                    "Trend": 0,
                    "ConsumptionAmount": 0.24839338604404496,
                    "DeliveredByPlayer": true,
                    "FetchedByPlayer": false,
                    "PositionOfPlayer": 6
                },
                {
                    "ResourceId": 48,
                    "Amount": 6515,
                    "LastAmount": 0,
                    "Limit": 179000,
                    "Price": 1973,
                    "NoobPrice": 0,
                    "Trend": 0,
                    "ConsumptionAmount": 0.2759925871124274,
                    "DeliveredByPlayer": true,
                    "FetchedByPlayer": false,
                    "PositionOfPlayer": 5
                },
                {
                    "ResourceId": 49,
                    "Amount": 2099595,
                    "LastAmount": 1978090,
                    "Limit": 25060000,
                    "Price": 0,
                    "NoobPrice": 0,
                    "Trend": 0.6816041500399043,
                    "ConsumptionAmount": 0.27599258511791436,
                    "DeliveredByPlayer": true,
                    "FetchedByPlayer": false,
                    "PositionOfPlayer": 19
                },
                {
                    "ResourceId": 20,
                    "Amount": 0,
                    "LastAmount": 0,
                    "Limit": 179000,
                    "Price": 880,
                    "NoobPrice": 0,
                    "Trend": 0,
                    "ConsumptionAmount": 0.2759926433600297,
                    "DeliveredByPlayer": false,
                    "FetchedByPlayer": false,
                    "PositionOfPlayer": 0
                },
                {
                    "ResourceId": 23,
                    "Amount": 140986,
                    "LastAmount": 135891,
                    "Limit": 179000,
                    "Price": 76,
                    "NoobPrice": 0,
                    "Trend": 54.241340782122904,
                    "ConsumptionAmount": 0.27599264141583024,
                    "DeliveredByPlayer": true,
                    "FetchedByPlayer": false,
                    "PositionOfPlayer": 0
                },
                {
                    "ResourceId": 26,
                    "Amount": 0,
                    "LastAmount": 0,
                    "Limit": 179000,
                    "Price": 999,
                    "NoobPrice": 0,
                    "Trend": 0,
                    "ConsumptionAmount": 0.275992637546783,
                    "DeliveredByPlayer": false,
                    "FetchedByPlayer": false,
                    "PositionOfPlayer": 0
                },
                {
                    "ResourceId": 27,
                    "Amount": 0,
                    "LastAmount": 0,
                    "Limit": 179000,
                    "Price": 900,
                    "NoobPrice": 0,
                    "Trend": 0,
                    "ConsumptionAmount": 0.27599261087629157,
                    "DeliveredByPlayer": false,
                    "FetchedByPlayer": false,
                    "PositionOfPlayer": 0
                }
            ]
        },
        "Priorities": {
            "1": 4,
            "2": 4,
            "3": 4,
            "4": 4,
            "7": 1,
            "9": 1,
            "11": 1,
            "13": 1,
            "14": 4,
            "17": 4,
            "18": 4,
            "20": 1,
            "23": 3,
            "24": 4,
            "26": 1,
            "27": 1,
            "30": 4,
            "34": 4,
            "35": 1,
            "37": 1,
            "39": 4,
            "41": 4,
            "42": 1,
            "48": 1,
            "49": 0
        },
        "SinceLevels": {
            "1": 11,
            "2": 12,
            "3": 17,
            "4": 13,
            "5": 15,
            "6": 16,
            "7": 18,
            "8": 28,
            "9": 14,
            "10": 23,
            "11": 20,
            "12": 24,
            "13": 22,
            "14": 19,
            "15": 25,
            "16": 21,
            "17": 26,
            "18": 27,
            "19": 30,
            "20": 29,
            "21": 33,
            "22": 32,
            "23": 34,
            "24": 35,
            "25": 31,
            "26": 36,
            "27": 39,
            "28": 40,
            "29": 37,
            "30": 38,
            "31": 43,
            "32": 42,
            "33": 41,
            "34": 44,
            "35": 45,
            "36": 47,
            "37": 48,
            "38": 49,
            "39": 49,
            "40": 48,
            "41": 46,
            "42": 49,
            "43": 49,
            "44": 49,
            "45": 49,
            "46": 47,
            "47": 49,
            "48": 49,
            "49": 49
        },
        "SinceTimestamps": {
            "1": -3809674,
            "2": -3809674,
            "3": -3482796,
            "4": -3809674,
            "5": -3631296,
            "6": -3566496,
            "7": -3363996,
            "8": -1852896,
            "9": -3641196,
            "10": -2429796,
            "11": -3105696,
            "12": -2169696,
            "13": -2678196,
            "14": -3278496,
            "15": -2085096,
            "16": -2846496,
            "17": -1986096,
            "18": -1911396,
            "19": -1766496,
            "20": -1815092,
            "21": -1639596,
            "22": -1681896,
            "23": -1593692,
            "24": -1547796,
            "25": -1724196,
            "26": -1492896,
            "27": -1323696,
            "28": -1286796,
            "29": -1419096,
            "30": -1378596,
            "31": -1157196,
            "32": -1205796,
            "33": -1233696,
            "34": -1120296,
            "35": -1072596,
            "36": -964596,
            "37": -337296,
            "38": -275196,
            "39": -275196,
            "40": -337296,
            "41": -1033896,
            "42": -275196,
            "43": -297696,
            "44": -297696,
            "45": -297696,
            "46": -503796,
            "47": -297696,
            "48": -275196
        },
        "LowerConsumptionResources": [
            13
        ],
        "AnnouncedEndgameResources": [
            13
        ],
        "LastConsumption": -696,
        "IsSisterCity": false,
        "PassengerSalePromotionEndTime": 37956,
        "PassengerSalePromotionLastPayer": "f30d8a27-e2bf-bd94-3b06-b26389bed7ab",
        "PassengerSalePromotionLastPayTime": -1747,
        "DeliveredAmounts": null,
        "DeliveredResources": null,
        "IsSupportedByPresident": true,
        "Region": "00000064-0000-0000-0000-000007000000",
        "RegionYesterday": "00000064-0000-0000-0000-000007000000",
        "CommunityProjectBonuses": []
    }
}